{
    "directories": [
        "vendor",
        "resources",
        "bin",
        "src"
    ],
    "chmod": "0755",
    "output": "dist/psalm-junit-formatter.phar",
    "exclude-dev-files": true,
    "main": "bin/psalm-junit-formatter",
    "dump-autoload": true,
    "compression": "GZ"
}
